[
    {
        "id": 1,
        "protocol": "http",
        "ip": "localhost",
        "port": "7000",
        "app": "",
        "baseurl": ""
    },
    {
        "id": 2,
        "protocol": "http",
        "ip": "localhost",
        "port": "7000",
        "app": "",
        "smsurl": ""
    },
    {
        "id": 3,
        "protocol": "http",
        "ip": "localhost",
        "port": "8080",
        "app": "abhilekh_app",
        "baseurl": ""
    },
    {
        "id": 4,
        "protocol": "http",
        "ip": "192.168.0.2",
        "port": "8080",
        "app": "ntpc_sms",
        "smsurl": ""
    }
]